<svg width="48" height="48" viewBox="0 0 48 48" fill="none" xmlns="http://www.w3.org/2000/svg">
<path d="M9.8252 22.6504V27.7504C9.8252 38.2504 38.1002 38.2504 38.1002 27.7504V22.6504H9.8252Z" fill="#596066"/>
<path d="M46.5 19.0508L24 29.1758L1.5 19.0508L24 8.92578L46.5 19.0508Z" fill="#3E4347"/>
<path d="M23.925 18.6007C20.475 20.1757 12.975 23.5507 12.675 23.7007C12.525 23.7757 12.375 23.9257 12.375 24.1507V29.2507C12.375 29.8507 13.125 29.8507 13.125 29.2507V24.5257C16.5 23.0257 23.775 19.7257 24.075 19.5757C24.525 19.3507 24.375 18.4507 23.925 18.6007Z" fill="#FFCE31"/>
<path d="M12.7502 30.975C13.5372 30.975 14.1752 30.1691 14.1752 29.175C14.1752 28.1809 13.5372 27.375 12.7502 27.375C11.9632 27.375 11.3252 28.1809 11.3252 29.175C11.3252 30.1691 11.9632 30.975 12.7502 30.975Z" fill="#FFCE31"/>
<path d="M12.7502 38.9258C13.5002 38.9258 14.1752 38.5508 14.1752 38.0258V29.1758H11.3252V38.0258C11.3252 38.5508 12.0002 38.9258 12.7502 38.9258Z" fill="#FFCE31"/>
<path d="M13.7247 29.4004C13.6497 29.4004 13.6497 29.4754 13.5747 29.4754V38.7754C13.6497 38.7754 13.6497 38.7004 13.7247 38.7004V29.4004Z" fill="#594640"/>
<path d="M13.1251 29.625H12.9751V38.925H13.1251V29.625Z" fill="#594640"/>
<path d="M12.525 29.625H12.375V38.925H12.525V29.625Z" fill="#594640"/>
<path d="M11.9249 29.4754C11.8499 29.4754 11.8499 29.4004 11.7749 29.4004V38.7754C11.8499 38.7754 11.8499 38.8504 11.9249 38.8504V29.4754Z" fill="#594640"/>
</svg>
