<svg width="45" height="45" viewBox="0 0 45 45" fill="none" xmlns="http://www.w3.org/2000/svg">
<path d="M11.25 18.75C9.1875 18.75 7.5 20.4375 7.5 22.5C7.5 24.5625 9.1875 26.25 11.25 26.25C13.3125 26.25 15 24.5625 15 22.5C15 20.4375 13.3125 18.75 11.25 18.75ZM33.75 18.75C31.6875 18.75 30 20.4375 30 22.5C30 24.5625 31.6875 26.25 33.75 26.25C35.8125 26.25 37.5 24.5625 37.5 22.5C37.5 20.4375 35.8125 18.75 33.75 18.75ZM22.5 18.75C20.4375 18.75 18.75 20.4375 18.75 22.5C18.75 24.5625 20.4375 26.25 22.5 26.25C24.5625 26.25 26.25 24.5625 26.25 22.5C26.25 20.4375 24.5625 18.75 22.5 18.75Z" fill="#2196F3"/>
</svg>
