<svg width="50" height="50" viewBox="0 0 50 50" fill="none" xmlns="http://www.w3.org/2000/svg">
<path d="M36.1111 21.6667H25.6667L32.7778 2.77783H20.5556L13.8889 26.1112H23.4445L18.3334 47.2223L36.1111 21.6667Z" fill="#FFC107"/>
</svg>
