<svg width="242" height="172" viewBox="0 0 242 172" fill="none" xmlns="http://www.w3.org/2000/svg">
<path d="M241.542 149.701H0.5V149.821H241.542V149.701Z" fill="#E0E0E0"/>
<path d="M207.661 155.997H193.975V156.117H207.661V155.997Z" fill="#E0E0E0"/>
<path d="M190.44 156.055H178.21V156.175H190.44V156.055Z" fill="#E0E0E0"/>
<path d="M133.854 153.263H117.391V153.384H133.854V153.263Z" fill="#E0E0E0"/>
<path d="M164.9 157H142.021V157.12H164.9V157Z" fill="#E0E0E0"/>
<path d="M69.3607 153.124H47.209V153.244H69.3607V153.124Z" fill="#E0E0E0"/>
<path d="M79.5615 153.124H72.0361V153.244H79.5615V153.124Z" fill="#E0E0E0"/>
<path d="M49.9959 155.293H30.6113V155.413H49.9959V155.293Z" fill="#E0E0E0"/>
<path d="M158.797 3.56689H34.9014V66.0256H158.797V3.56689Z" fill="#E0E0E0"/>
<path d="M160.412 3.56689H36.5166V66.0256H160.412V3.56689Z" fill="#F0F0F0"/>
<path d="M157.515 63.0898V6.49316L39.4186 6.49316V63.0898L157.515 63.0898Z" fill="#E0E0E0"/>
<path d="M48.1631 63.0942L80.1927 6.49756H95.2L63.1752 63.0942H48.1631Z" fill="white"/>
<path d="M68.2129 63.0942L100.243 6.49756H115.25L83.225 63.0942H68.2129Z" fill="white"/>
<path d="M109.934 63.0942L141.958 6.49756H148.139L116.114 63.0942H109.934Z" fill="white"/>
<path d="M119.068 63.0898V6.49316H114.701V63.0898H119.068Z" fill="#E0E0E0"/>
<path d="M79.0078 63.0898V6.49316H74.6401V63.0898H79.0078Z" fill="#E0E0E0"/>
<path d="M120.601 64.9553V4.31885H116.233V64.9553H120.601Z" fill="#E0E0E0"/>
<path d="M80.54 64.9553V4.31885H76.1724V64.9553H80.54Z" fill="#E0E0E0"/>
<path d="M157.515 63.0898V6.49316H156.295V63.0898H157.515Z" fill="#E0E0E0"/>
<path d="M189.4 84.4651C189.4 84.4651 180.559 69.2264 192.823 57.0972C192.823 57.0972 196.024 59.1798 195.976 61.9855C195.927 64.7912 192.548 65.4999 193.271 67.8428C193.994 70.1857 197.19 72.4805 195.098 74.4136C193.006 76.3468 195.431 78.0726 195.291 80.4397C195.151 82.8067 189.4 84.4651 189.4 84.4651Z" fill="#E0E0E0"/>
<path d="M190.788 86.9573C190.788 86.9573 194.37 69.7083 178.904 62.0625C178.904 62.0625 176.528 65.0514 177.458 67.6981C178.389 70.3447 181.821 69.9542 181.869 72.4032C181.917 74.8522 179.613 78.0387 182.212 79.215C184.81 80.3913 183.046 82.7921 183.928 85C184.81 87.208 190.788 86.9573 190.788 86.9573Z" fill="#EBEBEB"/>
<path d="M182.916 82.5757C182.916 82.5757 183.07 89.7684 189.019 89.7684C194.968 89.7684 195.127 82.5757 195.127 82.5757H182.916Z" fill="#E0E0E0"/>
<path d="M141.635 84.1665C141.635 84.1665 141.837 89.7683 149.661 89.7683C157.486 89.7683 157.693 84.1665 157.693 84.1665H141.635Z" fill="#EBEBEB"/>
<path d="M159.795 85.5552C159.795 85.5552 159.949 89.7686 165.831 89.7686C171.712 89.7686 171.861 85.5552 171.861 85.5552H159.795Z" fill="#EBEBEB"/>
<path d="M147.145 93.2632H133.975V146.085H147.145V93.2632Z" fill="#EBEBEB"/>
<path d="M201.446 146.081H136.5V149.701H201.446V146.081Z" fill="#EBEBEB"/>
<path d="M147.145 146.081H203.978V93.2587H147.145V146.081Z" fill="#E0E0E0"/>
<path d="M152.322 117.103H198.8V98.3688H152.322V117.103Z" fill="#EBEBEB"/>
<path d="M152.322 139.249H198.8V120.515H152.322V139.249Z" fill="#EBEBEB"/>
<path d="M180.799 100.422H170.343C170.002 100.422 169.676 100.287 169.434 100.047C169.193 99.8064 169.057 99.4802 169.056 99.1397C169.057 98.7987 169.193 98.4721 169.434 98.2309C169.675 97.9898 170.002 97.8538 170.343 97.8525H180.799C181.14 97.8538 181.467 97.9898 181.708 98.2309C181.949 98.4721 182.085 98.7987 182.086 99.1397C182.085 99.4802 181.949 99.8064 181.708 100.047C181.466 100.287 181.14 100.422 180.799 100.422Z" fill="#E0E0E0"/>
<path d="M180.799 122.569H170.343C170.002 122.569 169.676 122.434 169.434 122.194C169.193 121.953 169.057 121.627 169.056 121.287C169.057 120.946 169.193 120.619 169.434 120.378C169.675 120.137 170.002 120.001 170.343 120H180.799C181.14 120.001 181.467 120.137 181.708 120.378C181.949 120.619 182.085 120.946 182.086 121.287C182.085 121.627 181.949 121.953 181.708 122.194C181.466 122.434 181.14 122.569 180.799 122.569Z" fill="#E0E0E0"/>
<path d="M205.728 89.7681H147.141V93.2632H205.728V89.7681Z" fill="#EBEBEB"/>
<path d="M132.129 93.2583H147.141V89.7632H132.129V93.2583Z" fill="#E0E0E0"/>
<path d="M202.792 12.3604H174.263V45.2288H202.792V12.3604Z" fill="#EBEBEB"/>
<path d="M206.031 12.3604H175.115V45.2288H206.031V12.3604Z" fill="#E0E0E0"/>
<path d="M203.442 42.6348V14.9487L177.704 14.9487V42.6348H203.442Z" fill="white"/>
<path d="M197.205 33.6534V23.9298C197.205 22.6758 196.188 21.6592 194.934 21.6592H186.214C184.96 21.6592 183.943 22.6758 183.943 23.9298V33.6534C183.943 34.9074 184.96 35.924 186.214 35.924H194.934C196.188 35.924 197.205 34.9074 197.205 33.6534Z" fill="#E0E0E0"/>
<path d="M130.224 119.098H126.912V149.701H130.224V119.098Z" fill="#E0E0E0"/>
<path opacity="0.5" d="M130.224 119.098H128.565V149.701H130.224V119.098Z" fill="#E0E0E0"/>
<path d="M115.717 127.669H113.442C113.691 127.458 113.891 127.195 114.029 126.899C114.166 126.602 114.237 126.28 114.237 125.953H87.2744C87.2755 126.28 87.3476 126.603 87.4858 126.899C87.6239 127.196 87.8249 127.458 88.0747 127.669H85.8281C85.0226 127.669 84.2501 127.989 83.6806 128.559C83.111 129.128 82.791 129.901 82.791 130.706V139.562C82.791 140.368 83.111 141.14 83.6806 141.71C84.2501 142.279 85.0226 142.599 85.8281 142.599H115.717C116.523 142.599 117.295 142.279 117.865 141.71C118.434 141.14 118.754 140.368 118.754 139.562V130.706C118.754 129.901 118.434 129.128 117.865 128.559C117.295 127.989 116.523 127.669 115.717 127.669Z" fill="#E0E0E0"/>
<path d="M90.7797 134.211H72.6485C71.5196 134.211 70.6045 135.126 70.6045 136.255V140.555C70.6045 141.684 71.5196 142.599 72.6485 142.599H90.7797C91.9086 142.599 92.8237 141.684 92.8237 140.555V136.255C92.8237 135.126 91.9086 134.211 90.7797 134.211Z" fill="#EBEBEB"/>
<path d="M92.1392 132.36H71.2891C70.911 132.36 70.6045 132.667 70.6045 133.045V133.826C70.6045 134.204 70.911 134.51 71.2891 134.51H92.1392C92.5172 134.51 92.8237 134.204 92.8237 133.826V133.045C92.8237 132.667 92.5172 132.36 92.1392 132.36Z" fill="#E0E0E0"/>
<path d="M94.8721 105.431C94.8721 105.431 95.1854 115.555 107.045 115.555C118.904 115.555 119.217 105.431 119.217 105.431H94.8721Z" fill="#EBEBEB"/>
<path d="M37.6735 119.098H52.4639V115.56H37.6735V119.098Z" fill="#E0E0E0"/>
<path d="M141.702 115.56H52.4688V119.098H141.702V115.56Z" fill="#E0E0E0"/>
<path d="M37.6735 146.138H52.4639V142.6H37.6735V146.138Z" fill="#E0E0E0"/>
<path d="M40.9896 119.098H37.6777V149.701H40.9896V119.098Z" fill="#E0E0E0"/>
<path opacity="0.5" d="M40.9904 119.098H39.332V149.701H40.9904V119.098Z" fill="#E0E0E0"/>
<path d="M54.1225 119.098H50.8105V149.701H54.1225V119.098Z" fill="#E0E0E0"/>
<path d="M52.4689 119.098H50.8105V149.701H52.4689V119.098Z" fill="#E0E0E0"/>
<path d="M141.698 119.098H138.386V149.701H141.698V119.098Z" fill="#E0E0E0"/>
<path d="M140.044 119.098H138.386V149.701H140.044V119.098Z" fill="#E0E0E0"/>
<path d="M141.702 142.6H52.4688V146.138H141.702V142.6Z" fill="#E0E0E0"/>
<path d="M76.2648 113.472H58.2734V115.56H76.2648V113.472Z" fill="#E0E0E0"/>
<path d="M76.2635 115.555H82.709V113.467H76.2635V115.555Z" fill="#EBEBEB"/>
<path d="M121.021 171.471C172.644 171.471 214.492 169.028 214.492 166.014C214.492 163 172.644 160.557 121.021 160.557C69.3983 160.557 27.5498 163 27.5498 166.014C27.5498 169.028 69.3983 171.471 121.021 171.471Z" fill="#E0E0E0"/>
<path d="M105.532 38.002C105.566 43.7147 101.473 43.6569 101.555 41.8828C101.637 40.1087 100.625 35.8616 101.555 36.2713C102.486 36.6811 105.518 35.4759 105.532 38.002Z" fill="#263238"/>
<path d="M102.957 48.3482C103.521 48.3048 104.654 48.8302 104.755 50.3199C104.782 50.7527 104.908 51.1735 105.125 51.5491C105.342 51.9247 105.642 52.2449 106.004 52.4844C106.004 52.4844 104.129 52.711 102.899 51.7372C101.897 50.9514 101.453 49.2304 101.979 48.8447C102.266 48.6126 102.6 48.4435 102.957 48.3482Z" fill="#263238"/>
<path d="M102.22 44.2886C103.184 45.1419 104.066 47.398 101.892 48.4682C99.7178 49.5385 96.2998 47.0461 96.2998 47.0461L100.055 45.3058L102.22 44.2886Z" fill="#263238"/>
<path d="M103.29 48.5548C103.237 48.2424 103.15 47.9369 103.03 47.6437C103.02 47.6158 103.003 47.5906 102.982 47.5699C102.96 47.5493 102.935 47.5338 102.906 47.5245C102.878 47.5152 102.848 47.5124 102.819 47.5164C102.789 47.5203 102.761 47.5309 102.736 47.5472L101.401 48.4391C101.374 48.4572 101.352 48.4816 101.337 48.5102C101.321 48.5388 101.313 48.5706 101.313 48.603C101.313 48.6354 101.321 48.6672 101.337 48.6958C101.352 48.7244 101.374 48.7488 101.401 48.7669C101.593 48.9078 101.8 49.0275 102.018 49.1237C102.331 49.249 102.982 48.8923 103.204 48.738C103.234 48.7189 103.258 48.6916 103.274 48.6591C103.289 48.6266 103.295 48.5904 103.29 48.5548Z" fill="#21629E"/>
<path opacity="0.3" d="M103.29 48.5548C103.237 48.2424 103.15 47.9369 103.03 47.6437C103.02 47.6158 103.003 47.5906 102.982 47.5699C102.96 47.5493 102.935 47.5338 102.906 47.5245C102.878 47.5152 102.848 47.5124 102.819 47.5164C102.789 47.5203 102.761 47.5309 102.736 47.5472L101.401 48.4391C101.374 48.4572 101.352 48.4816 101.337 48.5102C101.321 48.5388 101.313 48.5706 101.313 48.603C101.313 48.6354 101.321 48.6672 101.337 48.6958C101.352 48.7244 101.374 48.7488 101.401 48.7669C101.593 48.9078 101.8 49.0275 102.018 49.1237C102.331 49.249 102.982 48.8923 103.204 48.738C103.234 48.7189 103.258 48.6916 103.274 48.6591C103.289 48.6266 103.295 48.5904 103.29 48.5548Z" fill="black"/>
<path d="M88.9191 46.1883C88.384 46.0099 87.1595 46.251 86.7063 47.6779C86.5776 48.092 86.3548 48.4706 86.0554 48.7843C85.756 49.0979 85.3881 49.338 84.9805 49.4858C84.9805 49.4858 86.7497 50.151 88.1767 49.4858C89.3337 48.9603 90.1532 47.3887 89.7531 46.8873C89.5288 46.5968 89.2443 46.3583 88.9191 46.1883Z" fill="#263238"/>
<path d="M94.2311 36.3779C92.2786 36.9082 89.6513 39.2222 90.8179 42.0617C89.6657 42.8475 88.1906 45.1085 89.9164 46.5547C91.7724 48.1118 96.3378 45.928 96.3378 45.928L96.3715 45.1856L96.9163 39.6609L94.2311 36.3779Z" fill="#263238"/>
<path d="M88.5484 46.3136C88.6779 46.0218 88.8396 45.7453 89.0305 45.4893C89.0494 45.4661 89.0734 45.4474 89.1005 45.4345C89.1275 45.4217 89.1572 45.415 89.1871 45.415C89.2171 45.415 89.2467 45.4217 89.2738 45.4345C89.3009 45.4474 89.3248 45.4661 89.3438 45.4893L90.4237 46.6704C90.4455 46.6944 90.4612 46.7233 90.4695 46.7547C90.4777 46.7861 90.4784 46.819 90.4713 46.8506C90.4642 46.8823 90.4496 46.9118 90.4287 46.9366C90.4079 46.9615 90.3813 46.9809 90.3514 46.9934C90.1323 47.0827 89.9045 47.1489 89.6716 47.191C89.3342 47.2392 88.8135 46.7427 88.611 46.5402C88.5783 46.5137 88.5547 46.4776 88.5435 46.4369C88.5322 46.3963 88.5339 46.3532 88.5484 46.3136Z" fill="#21629E"/>
<path opacity="0.3" d="M88.5484 46.3136C88.6779 46.0218 88.8396 45.7453 89.0305 45.4893C89.0494 45.4661 89.0734 45.4474 89.1005 45.4345C89.1275 45.4217 89.1572 45.415 89.1871 45.415C89.2171 45.415 89.2467 45.4217 89.2738 45.4345C89.3009 45.4474 89.3248 45.4661 89.3438 45.4893L90.4237 46.6704C90.4455 46.6944 90.4612 46.7233 90.4695 46.7547C90.4777 46.7861 90.4784 46.819 90.4713 46.8506C90.4642 46.8823 90.4496 46.9118 90.4287 46.9366C90.4079 46.9615 90.3813 46.9809 90.3514 46.9934C90.1323 47.0827 89.9045 47.1489 89.6716 47.191C89.3342 47.2392 88.8135 46.7427 88.611 46.5402C88.5783 46.5137 88.5547 46.4776 88.5435 46.4369C88.5322 46.3963 88.5339 46.3532 88.5484 46.3136Z" fill="black"/>
<path d="M106.116 56.5C107.037 57.2135 108.044 57.9752 109.056 58.6694C110.069 59.3636 111.086 60.0626 112.132 60.7038C113.178 61.3449 114.239 61.9427 115.309 62.5116L116.114 62.9213L116.934 63.3022C117.204 63.4324 117.478 63.5481 117.758 63.6541L118.168 63.8228C118.308 63.8759 118.457 63.9434 118.544 63.9675C119.048 64.1219 119.564 64.2331 120.087 64.3001C120.655 64.3821 121.253 64.4399 121.861 64.4833C123.071 64.5604 124.314 64.5942 125.563 64.599C126.812 64.6038 128.075 64.599 129.333 64.5604C130.591 64.5219 131.864 64.4929 133.117 64.4544L133.353 66.349C130.821 66.8596 128.265 67.2377 125.693 67.4819C124.396 67.5976 123.095 67.6843 121.764 67.694C121.099 67.694 120.424 67.694 119.73 67.6313C118.983 67.5873 118.243 67.4662 117.522 67.2697C117.3 67.2119 117.16 67.154 116.996 67.101L116.514 66.9323C116.191 66.8262 115.873 66.7105 115.55 66.5804L114.615 66.2043L113.699 65.7994C112.489 65.2534 111.309 64.6419 110.165 63.9675C109.028 63.2974 107.909 62.6032 106.829 61.8608C105.749 61.1184 104.708 60.3518 103.647 59.4503L106.116 56.5Z" fill="#E4897B"/>
<path d="M101.11 54.3355C102.311 53.4002 107.252 56.4615 108.756 57.739L107.662 64.358C107.662 64.358 100.551 61.3787 100.122 59.3443C99.6786 57.2183 100.204 55.049 101.11 54.3355Z" fill="#263238"/>
<path d="M132.591 64.6183L135.571 62.3091L135.807 65.8813C135.807 65.8813 133.753 67.154 132.398 66.3634L132.591 64.6183Z" fill="#E4897B"/>
<path d="M138.226 61.957L139.75 63.654L135.787 65.8812L135.551 62.309L138.226 61.957Z" fill="#E4897B"/>
<path d="M81.625 161.305L85.3804 161.584L86.7496 152.941L82.9989 152.661L81.625 161.305Z" fill="#E4897B"/>
<path d="M55.0576 149.224L58.2442 151.229L63.9183 144.5L60.7317 142.489L55.0576 149.224Z" fill="#E4897B"/>
<path d="M59.2518 150.511L56.2677 147.508C56.2167 147.455 56.1484 147.424 56.0755 147.418C56.0027 147.413 55.9304 147.434 55.8724 147.479L53.1583 149.508C53.0921 149.562 53.0378 149.629 52.9991 149.704C52.9604 149.78 52.938 149.863 52.9335 149.948C52.9289 150.033 52.9423 150.118 52.9727 150.198C53.0031 150.277 53.0499 150.35 53.1101 150.41C54.1658 151.437 54.7299 151.88 56.0411 153.201C56.8462 154.016 57.9405 155.284 59.0541 156.407C60.1678 157.53 61.3344 156.484 60.9825 155.925C59.353 153.384 59.6471 152.435 59.5362 151.143C59.5199 150.905 59.419 150.681 59.2518 150.511Z" fill="#263238"/>
<path d="M85.6317 161.045H81.399C81.3245 161.045 81.2524 161.071 81.1952 161.118C81.1379 161.166 81.0991 161.232 81.0856 161.305L80.4155 164.651C80.4 164.735 80.404 164.823 80.4271 164.906C80.4503 164.989 80.492 165.065 80.5491 165.13C80.6062 165.194 80.6772 165.245 80.7568 165.278C80.8364 165.311 80.9224 165.326 81.0085 165.321C82.4836 165.297 83.202 165.21 85.0628 165.21C86.2053 165.21 89.4015 165.326 90.9972 165.326C92.5929 165.326 92.752 163.764 92.1012 163.624C89.1846 162.987 87.2177 162.115 86.268 161.276C86.0925 161.122 85.8653 161.039 85.6317 161.045Z" fill="#263238"/>
<path d="M86.7502 152.941L85.9885 157.742L82.2861 157.12L82.9948 152.666L86.7502 152.941Z" fill="#CE6F64"/>
<path d="M60.7326 142.494L63.9191 144.5L61.5714 147.286L58.3125 145.363L60.7326 142.494Z" fill="#CE6F64"/>
<path d="M84.4795 74.3661L99.4916 77.2923C107.248 56.2879 105.561 55.5986 105.561 55.5986C104.47 54.9991 103.343 54.4678 102.186 54.0077L101.984 53.9306C101.02 53.5786 100.827 53.5256 99.5446 53.1496C97.3367 52.6241 95.2782 52.1854 92.7279 51.8238L92.2459 51.7564C91.7638 51.6985 91.3251 51.6503 90.8816 51.6069C90.5827 51.5732 90.2838 51.5539 89.9993 51.5346L89.0352 51.4816C87.3865 51.3996 86.2054 51.4237 86.2054 51.4237C86.6633 64.5412 85.9209 68.3063 84.4795 74.3661Z" fill="#263238"/>
<path d="M94.8969 44.2886C94.8969 46.564 94.5449 50.6665 92.7227 51.8332C92.7227 51.8332 92.8914 54.1761 96.965 54.9667C101.448 55.8393 99.5393 53.1589 99.5393 53.1589C97.2109 52.0983 97.611 50.2953 98.3823 48.6755L94.8969 44.2886Z" fill="#E4897B"/>
<path d="M96.3193 46.0771L98.3827 48.6756C98.2019 49.0511 98.0535 49.4414 97.9391 49.8422C97.028 49.524 95.9433 48.2513 96.0108 47.2534C96.0416 46.8459 96.1461 46.4473 96.3193 46.0771Z" fill="#CE6F64"/>
<path d="M94.6798 39.063C94.1977 42.7702 93.9036 44.3273 95.3884 46.569C97.6205 49.9436 102.277 49.7267 103.863 46.2412C105.31 43.1028 105.85 37.5637 102.547 35.4184C101.822 34.9396 100.987 34.6541 100.121 34.589C99.2542 34.524 98.3856 34.6815 97.5973 35.0467C96.8089 35.4119 96.127 35.9726 95.6164 36.6755C95.1058 37.3785 94.7833 38.2003 94.6798 39.063Z" fill="#E4897B"/>
<path d="M106.746 33.1911C106.814 33.779 106.77 34.3744 106.616 34.9459C106.581 34.7521 106.534 34.5605 106.476 34.3722C105.156 30.0046 99.2066 31.0459 97.4133 32.926C94.5208 32.0968 91.7681 32.7573 92.1345 36.3006C92.1802 37.2135 92.5088 38.0895 93.0745 38.8074C92.6262 40.0512 93.0745 42.0325 94.5545 42.0904C96.6371 42.1724 98.6137 39.4148 99.4091 37.9011C100.855 38.147 102.938 38.3832 104.519 37.9975C104.784 38.1566 105.001 38.2675 105.001 38.2675C106.684 37.366 107.966 36.4934 106.746 33.1911Z" fill="#263238"/>
<path d="M93.3979 41.5941C93.3389 42.3134 93.5658 43.0271 94.0294 43.5803C94.6561 44.3082 95.4756 43.8791 95.7697 43.0162C96.0156 42.2352 95.9818 40.9191 95.143 40.5094C94.9582 40.4225 94.7546 40.3832 94.5507 40.3952C94.3468 40.4071 94.1492 40.4698 93.9757 40.5776C93.8023 40.6854 93.6586 40.8349 93.5576 41.0124C93.4567 41.1899 93.4018 41.3899 93.3979 41.5941Z" fill="#E4897B"/>
<path d="M99.2656 77.2918C99.2656 77.2918 99.3235 107.094 96.8841 118.317C94.3484 129.993 86.8905 156.556 86.8905 156.556L81.4912 155.857C81.4912 155.857 85.7191 129.024 87.5173 117.42C89.4793 104.775 88.2789 75.1514 88.2789 75.1514L99.2656 77.2918Z" fill="#21629E"/>
<path opacity="0.3" d="M99.2656 77.2918C99.2656 77.2918 99.3235 107.094 96.8841 118.317C94.3484 129.993 86.8905 156.556 86.8905 156.556L81.4912 155.857C81.4912 155.857 85.7191 129.024 87.5173 117.42C89.4793 104.775 88.2789 75.1514 88.2789 75.1514L99.2656 77.2918Z" fill="black"/>
<path d="M87.8102 157.024L80.5645 156.089L80.873 153.524L89.0973 154.489L87.8102 157.024Z" fill="#263238"/>
<path d="M95.5284 76.5206C95.5284 76.5206 87.4439 101.15 83.4281 115.338C79.1955 130.307 62.9685 146.861 62.9685 146.861L58.3164 144.171C58.3164 144.171 69.4043 128.455 73.4779 114.49C81.7746 86.1382 78.3663 80.1314 84.4791 74.3657L95.5284 76.5206Z" fill="#21629E"/>
<path opacity="0.3" d="M95.5284 76.5206C95.5284 76.5206 87.4439 101.15 83.4281 115.338C79.1955 130.307 62.9685 146.861 62.9685 146.861L58.3164 144.171C58.3164 144.171 69.4043 128.455 73.4779 114.49C81.7746 86.1382 78.3663 80.1314 84.4791 74.3657L95.5284 76.5206Z" fill="black"/>
<path d="M63.7255 147.609L57.2607 143.878L58.8709 141.573L66.0491 145.531L63.7255 147.609Z" fill="#263238"/>
<path d="M100.031 41.1694C99.9731 41.4683 100.084 41.7383 100.282 41.7768C100.479 41.8154 100.682 41.6033 100.764 41.2948C100.846 40.9862 100.711 40.7211 100.513 40.6825C100.315 40.6439 100.089 40.8705 100.031 41.1694Z" fill="#263238"/>
<path d="M103.401 41.8251C103.343 42.124 103.454 42.3988 103.652 42.4373C103.849 42.4759 104.052 42.2638 104.11 41.9553C104.168 41.6467 104.057 41.3816 103.859 41.3478C103.661 41.3141 103.459 41.5214 103.401 41.8251Z" fill="#263238"/>
<path d="M103.772 41.3527L104.529 41.29C104.529 41.29 104.052 41.7769 103.772 41.3527Z" fill="#263238"/>
<path d="M102.413 42.1675C102.546 42.8984 102.779 43.6074 103.107 44.2742C102.934 44.3551 102.746 44.397 102.555 44.397C102.364 44.397 102.176 44.3551 102.003 44.2742L102.413 42.1675Z" fill="#DE5753"/>
<path d="M100.74 45.2382C100.337 45.1722 99.956 45.0098 99.6295 44.7646C99.3029 44.5195 99.0405 44.199 98.8647 43.8305C98.86 43.8198 98.8575 43.8082 98.8574 43.7965C98.8573 43.7848 98.8596 43.7732 98.8641 43.7624C98.8686 43.7516 98.8752 43.7418 98.8836 43.7336C98.892 43.7254 98.902 43.719 98.9129 43.7148C98.9347 43.7066 98.9588 43.7071 98.9803 43.716C99.0018 43.725 99.0191 43.7418 99.0286 43.763C99.197 44.1017 99.4427 44.396 99.7458 44.6221C100.049 44.8482 100.401 44.9998 100.774 45.0647C100.785 45.0664 100.796 45.0704 100.806 45.0765C100.816 45.0826 100.825 45.0906 100.831 45.1C100.838 45.1094 100.843 45.1201 100.845 45.1314C100.848 45.1428 100.848 45.1545 100.846 45.1659C100.841 45.1894 100.828 45.2102 100.808 45.2237C100.788 45.2372 100.764 45.2425 100.74 45.2382Z" fill="#263238"/>
<path d="M99.2648 39.8871C99.2292 39.8868 99.1944 39.8759 99.1651 39.8556C99.1357 39.8354 99.1131 39.8069 99.1001 39.7737C99.0871 39.7404 99.0844 39.7041 99.0923 39.6693C99.1002 39.6346 99.1183 39.603 99.1443 39.5786C99.3511 39.3848 99.601 39.243 99.8735 39.165C100.146 39.0871 100.433 39.0751 100.711 39.1302C100.757 39.1437 100.795 39.1744 100.819 39.2158C100.842 39.2571 100.848 39.306 100.836 39.352C100.824 39.3972 100.794 39.4357 100.754 39.4592C100.713 39.4826 100.665 39.4892 100.619 39.4773C100.399 39.4382 100.172 39.4509 99.9568 39.5145C99.7418 39.5781 99.5445 39.6908 99.3805 39.8437C99.3486 39.8719 99.3074 39.8873 99.2648 39.8871Z" fill="#263238"/>
<path d="M105.272 40.5572C105.236 40.5577 105.202 40.5473 105.172 40.5275C105.143 40.5076 105.12 40.4794 105.108 40.4464C105.025 40.2375 104.895 40.0508 104.728 39.9011C104.56 39.7513 104.36 39.6425 104.144 39.5834C104.12 39.5794 104.098 39.5708 104.079 39.5581C104.059 39.5455 104.042 39.5291 104.028 39.5098C104.015 39.4906 104.005 39.4688 104 39.4459C103.995 39.423 103.995 39.3993 103.999 39.3761C104.009 39.3306 104.036 39.2905 104.075 39.2638C104.113 39.2371 104.16 39.2256 104.206 39.2315C104.481 39.3002 104.736 39.4336 104.949 39.6206C105.162 39.8076 105.327 40.0428 105.431 40.3066C105.44 40.3284 105.445 40.3518 105.445 40.3756C105.446 40.3994 105.441 40.423 105.432 40.445C105.423 40.467 105.41 40.487 105.393 40.5038C105.376 40.5206 105.356 40.5338 105.334 40.5428L105.272 40.5572Z" fill="#263238"/>
<path d="M100.437 43.8114C100.287 43.812 100.14 43.7779 100.006 43.7118C99.8723 43.6457 99.7556 43.5494 99.6653 43.4306C99.4386 43.077 99.2873 42.6804 99.2209 42.2656C99.1546 41.8508 99.1746 41.4268 99.2796 41.0202C99.5544 39.4968 100.509 38.2578 101.41 38.2578C101.56 38.2596 101.708 38.2952 101.843 38.362C101.977 38.4288 102.095 38.525 102.187 38.6435C102.413 38.9974 102.563 39.394 102.63 39.8087C102.696 40.2233 102.676 40.6471 102.572 41.0539C102.297 42.5773 101.338 43.8114 100.437 43.8114ZM101.401 38.3928C100.557 38.3928 99.6508 39.5884 99.3857 41.0539C99.217 42.0181 99.3519 42.8858 99.7473 43.3534C99.8276 43.4575 99.9305 43.542 100.048 43.6004C100.166 43.6589 100.296 43.6898 100.427 43.6909C101.275 43.6909 102.177 42.5002 102.442 41.0346H102.5H102.442C102.544 40.6472 102.565 40.2427 102.503 39.8469C102.441 39.451 102.297 39.0724 102.081 38.7351C102.001 38.6316 101.9 38.5472 101.784 38.488C101.668 38.4288 101.541 38.3962 101.41 38.3928H101.401Z" fill="#FAFAFA"/>
<path d="M104.182 44.2935C104.026 44.2902 103.872 44.2522 103.733 44.1821C103.594 44.1121 103.472 44.0118 103.376 43.8885C103.16 43.564 103.014 43.1979 102.946 42.8136C102.879 42.4293 102.893 42.0353 102.986 41.6565C103.232 40.2392 104.157 39.0918 105.049 39.0918C105.206 39.0956 105.359 39.1344 105.498 39.2053C105.638 39.2762 105.759 39.3774 105.854 39.5016C106.069 39.8259 106.215 40.1911 106.282 40.5744C106.349 40.9577 106.337 41.3507 106.245 41.7288C106.004 43.1509 105.078 44.2935 104.182 44.2935ZM105.035 39.2123C104.196 39.2123 103.328 40.3163 103.107 41.6806C103.02 42.042 103.008 42.4173 103.071 42.7837C103.134 43.15 103.27 43.4997 103.473 43.8114C103.558 43.9207 103.666 44.0098 103.789 44.0723C103.912 44.1348 104.048 44.1692 104.186 44.173C105.025 44.173 105.898 43.0738 106.115 41.7095C106.201 41.3483 106.214 40.9734 106.151 40.6072C106.089 40.241 105.954 39.8912 105.753 39.5787C105.669 39.4685 105.561 39.3785 105.438 39.3151C105.314 39.2518 105.178 39.2167 105.04 39.2123H105.035Z" fill="#FAFAFA"/>
<path d="M60.3599 152.261C59.8778 152.261 59.3716 151.518 59.1113 151.089C59.1018 151.075 59.0967 151.058 59.0967 151.041C59.0967 151.024 59.1018 151.007 59.1113 150.993C59.122 150.979 59.136 150.968 59.152 150.962C59.1681 150.955 59.1856 150.952 59.2029 150.954C59.3572 150.988 60.6829 151.277 60.8516 151.73C60.8708 151.78 60.876 151.835 60.8667 151.887C60.8573 151.94 60.8338 151.989 60.7986 152.029C60.7511 152.102 60.686 152.161 60.6092 152.202C60.5325 152.242 60.4467 152.263 60.3599 152.261ZM59.3523 151.176C59.7235 151.735 60.0851 152.068 60.3454 152.082C60.4032 152.083 60.4602 152.068 60.5108 152.041C60.5615 152.013 60.6041 151.972 60.6347 151.923C60.651 151.906 60.6619 151.885 60.6662 151.862C60.6705 151.839 60.6679 151.815 60.6588 151.793C60.572 151.552 59.8826 151.311 59.3523 151.176Z" fill="#21629E"/>
<path d="M59.5694 151.176C59.4234 151.178 59.2776 151.162 59.1356 151.128C59.1211 151.123 59.1079 151.115 59.097 151.104C59.0862 151.093 59.0779 151.08 59.0729 151.065C59.0616 151.037 59.0616 151.006 59.0729 150.979C59.1066 150.95 59.8442 150.222 60.389 150.222H60.4276C60.495 150.226 60.5608 150.245 60.6206 150.276C60.6804 150.308 60.7329 150.352 60.7747 150.405C60.8238 150.456 60.8543 150.523 60.8613 150.593C60.8683 150.664 60.8514 150.735 60.8132 150.795C60.659 151.056 60.0419 151.176 59.5694 151.176ZM59.3525 150.988C59.8057 151.041 60.5384 150.911 60.6879 150.694C60.712 150.66 60.7313 150.607 60.659 150.516C60.6338 150.48 60.6006 150.451 60.562 150.431C60.5234 150.411 60.4807 150.4 60.4372 150.4C60.0236 150.479 59.6447 150.685 59.3525 150.988Z" fill="#21629E"/>
<path d="M87.0157 161.705C86.6167 161.694 86.2197 161.646 85.8298 161.561C85.8112 161.557 85.7943 161.547 85.7814 161.534C85.7684 161.52 85.7601 161.502 85.7575 161.484C85.7553 161.465 85.7588 161.447 85.7674 161.43C85.776 161.414 85.7893 161.401 85.8057 161.392C85.984 161.305 87.5315 160.534 87.9799 160.794C88.0207 160.82 88.0544 160.855 88.078 160.897C88.1016 160.94 88.1142 160.987 88.1148 161.035C88.1204 161.117 88.1062 161.198 88.0734 161.273C88.0407 161.347 87.9904 161.413 87.9268 161.464C87.6585 161.644 87.3378 161.729 87.0157 161.705ZM86.1335 161.445C86.9578 161.58 87.5797 161.546 87.8208 161.339C87.8618 161.303 87.8941 161.259 87.915 161.208C87.9359 161.158 87.9449 161.104 87.9413 161.05C87.9422 161.031 87.9383 161.013 87.9298 160.997C87.9213 160.981 87.9086 160.968 87.8931 160.958C87.652 160.818 86.7939 161.146 86.1335 161.445Z" fill="#21629E"/>
<path d="M85.8535 161.56C85.8361 161.565 85.8178 161.565 85.8004 161.56C85.7863 161.551 85.7751 161.538 85.7682 161.523C85.7614 161.507 85.7592 161.49 85.7619 161.474C85.7619 161.406 85.9933 159.873 86.8321 159.873H86.9044C87.1454 159.897 87.2129 160.018 87.2274 160.119C87.2949 160.543 86.3596 161.363 85.8872 161.565L85.8535 161.56ZM86.8176 160.037C86.2729 160.037 86.0318 160.924 85.9499 161.31C86.432 161.025 87.0731 160.384 87.0346 160.129C87.0346 160.129 87.0346 160.051 86.8658 160.037H86.8176Z" fill="#21629E"/>
<path d="M100.402 40.6969L101.159 40.6294C101.159 40.6294 100.682 41.1211 100.402 40.6969Z" fill="#263238"/>
<path d="M97.0906 58.1729C90.8235 55.7962 88.8662 52.2384 89.0157 51.4912L89.9798 51.5491H90.1437C90.3751 51.5491 90.6258 51.5828 90.862 51.6117C91.3056 51.6503 91.7635 51.6985 92.2263 51.7612L92.7084 51.8287C95.0094 52.1073 97.2874 52.5504 99.5251 53.1544C100.547 53.4533 100.885 53.5497 101.453 53.7522L101.96 53.9354L102.162 54.0125C102.663 55.0924 102.553 57.3003 97.0906 58.1729Z" fill="#E4897B"/>
<path d="M97.0906 58.1729C90.8235 55.7962 88.8662 52.2384 89.0157 51.4912L89.9798 51.5491H90.1437C91.4164 53.3569 94.2029 55.8541 97.0424 56.1964C99.3274 55.7143 101.482 55.1647 101.463 53.7522L101.969 53.9354L102.172 54.0125C102.663 55.0924 102.553 57.3003 97.0906 58.1729Z" fill="#21629E"/>
<path opacity="0.3" d="M97.0906 58.1729C90.8235 55.7962 88.8662 52.2384 89.0157 51.4912L89.9798 51.5491H90.1437C91.4164 53.3569 94.2029 55.8541 97.0424 56.1964C99.3274 55.7143 101.482 55.1647 101.463 53.7522L101.969 53.9354L102.172 54.0125C102.663 55.0924 102.553 57.3003 97.0906 58.1729Z" fill="black"/>
<path d="M84.4266 73.4402L83.4625 74.6551C83.3902 74.7467 83.4962 74.8768 83.6698 74.9106L99.4146 77.9766C99.5496 78.0056 99.6749 77.9766 99.699 77.8754L100.094 76.5593C100.123 76.4677 100.022 76.3665 99.8726 76.3376L84.6677 73.3776C84.6254 73.3687 84.5816 73.3697 84.5398 73.3806C84.498 73.3915 84.4592 73.4119 84.4266 73.4402Z" fill="#263238"/>
<path d="M86.1372 75.5374L85.7323 75.4603C85.6503 75.4603 85.5973 75.3928 85.6117 75.3398L86.142 73.6332C86.142 73.5802 86.2385 73.5561 86.3156 73.5705L86.7254 73.6477C86.8073 73.6477 86.8603 73.72 86.8459 73.7682L86.3156 75.4796C86.2963 75.5075 86.2684 75.5283 86.2362 75.5387C86.204 75.5492 86.1692 75.5487 86.1372 75.5374Z" fill="#21629E"/>
<path opacity="0.3" d="M86.1372 75.5374L85.7323 75.4603C85.6503 75.4603 85.5973 75.3928 85.6117 75.3398L86.142 73.6332C86.142 73.5802 86.2385 73.5561 86.3156 73.5705L86.7254 73.6477C86.8073 73.6477 86.8603 73.72 86.8459 73.7682L86.3156 75.4796C86.2963 75.5075 86.2684 75.5283 86.2362 75.5387C86.204 75.5492 86.1692 75.5487 86.1372 75.5374Z" fill="black"/>
<path d="M87.208 57.2423C87.0248 58.3848 86.8512 59.6527 86.7259 60.8386C86.6006 62.0246 86.4897 63.2491 86.4318 64.4832C86.3997 65.0906 86.3804 65.698 86.374 66.3055C86.374 66.9081 86.374 67.5107 86.374 68.1133C86.3978 69.2939 86.4896 70.4721 86.6488 71.6421C86.7397 72.0428 86.9031 72.4234 87.1308 72.7654C87.4194 73.2348 87.7416 73.6828 88.095 74.1056C88.8657 75.0197 89.6899 75.8874 90.5633 76.704C91.4455 77.5525 92.3711 78.372 93.3208 79.1723C94.2705 79.9725 95.2491 80.768 96.2133 81.5345L95.1768 83.135C92.9081 81.8915 90.7387 80.4748 88.688 78.8975C87.6293 78.0866 86.6304 77.2005 85.6991 76.246C85.2025 75.7341 84.7464 75.1845 84.3348 74.6021C83.8255 73.9133 83.4629 73.1274 83.2694 72.2929L83.091 71.2709C83.0283 70.9383 82.9849 70.6056 82.9464 70.2778C82.8499 69.6126 82.7969 68.9521 82.7439 68.2916C82.6436 66.9781 82.613 65.6602 82.6523 64.3434C82.6909 63.0369 82.7632 61.7353 82.8933 60.4385C83.0235 59.1417 83.1874 57.869 83.4477 56.5288L87.208 57.2423Z" fill="#E4897B"/>
<path d="M84.0066 52.4313C81.9433 54.0994 82.435 59.0552 82.435 59.0552L89.377 61.3403C89.377 61.3403 89.0588 55.6276 88.7214 53.5739C88.3068 51.1297 86.0314 50.7874 84.0066 52.4313Z" fill="#263238"/>
<path d="M95.3649 81.2257L98.5033 80.0591L98.0212 83.0432C98.0212 83.0432 95.7457 83.8627 94.5791 82.8118L95.3649 81.2257Z" fill="#E4897B"/>
<path d="M102.24 80.5026V82.807L98.0215 83.0432L98.5036 80.0591L102.24 80.5026Z" fill="#E4897B"/>
<path d="M98.2622 77.8997L97.8573 77.8226C97.7753 77.8226 97.7223 77.7551 97.7367 77.7021L98.267 75.9955C98.267 75.9425 98.3635 75.9184 98.4454 75.9328L98.8504 76.01C98.9323 76.01 98.9853 76.0823 98.9709 76.1305L98.4406 77.8419C98.4261 77.8901 98.3635 77.919 98.2622 77.8997Z" fill="#21629E"/>
<path opacity="0.3" d="M98.2622 77.8997L97.8573 77.8226C97.7753 77.8226 97.7223 77.7551 97.7367 77.7021L98.267 75.9955C98.267 75.9425 98.3635 75.9184 98.4454 75.9328L98.8504 76.01C98.9323 76.01 98.9853 76.0823 98.9709 76.1305L98.4406 77.8419C98.4261 77.8901 98.3635 77.919 98.2622 77.8997Z" fill="black"/>
<path d="M92.2023 76.7137L91.7925 76.6366C91.7106 76.6366 91.6575 76.5691 91.6768 76.5161L92.2071 74.8095C92.2071 74.7565 92.2987 74.7323 92.3807 74.7468L92.7904 74.8239C92.8676 74.8239 92.9254 74.8963 92.9061 74.9445L92.3758 76.6559C92.3614 76.7137 92.2842 76.7378 92.2023 76.7137Z" fill="#21629E"/>
<path opacity="0.3" d="M92.2023 76.7137L91.7925 76.6366C91.7106 76.6366 91.6575 76.5691 91.6768 76.5161L92.2071 74.8095C92.2071 74.7565 92.2987 74.7323 92.3807 74.7468L92.7904 74.8239C92.8676 74.8239 92.9254 74.8963 92.9061 74.9445L92.3758 76.6559C92.3614 76.7137 92.2842 76.7378 92.2023 76.7137Z" fill="black"/>
<path d="M61.4985 104.824L86.4897 159.406C87.0626 160.646 88.103 161.61 89.3838 162.086C90.6646 162.562 92.0817 162.511 93.3257 161.946L97.2932 160.134L189.164 118.072C190.405 117.501 191.369 116.462 191.846 115.182C192.323 113.901 192.274 112.485 191.709 111.241L169.625 63.0323L166.733 56.664C166.159 55.4244 165.118 54.4618 163.838 53.986C162.557 53.5101 161.141 53.5595 159.897 54.1234L64.0536 97.993C62.8126 98.5643 61.8477 99.6028 61.3691 100.882C60.8905 102.162 60.937 103.579 61.4985 104.824Z" fill="#21629E"/>
<path opacity="0.1" d="M61.4985 104.824L86.4897 159.406C87.0626 160.646 88.103 161.61 89.3838 162.086C90.6646 162.562 92.0817 162.511 93.3257 161.946L97.2932 160.134L189.164 118.072C190.405 117.501 191.369 116.462 191.846 115.182C192.323 113.901 192.274 112.485 191.709 111.241L169.625 63.0323L166.733 56.664C166.159 55.4244 165.118 54.4618 163.838 53.986C162.557 53.5101 161.141 53.5595 159.897 54.1234L64.0536 97.993C62.8126 98.5643 61.8477 99.6028 61.3691 100.882C60.8905 102.162 60.937 103.579 61.4985 104.824Z" fill="white"/>
<path d="M83.9557 153.871L189.172 105.699L176.858 78.8034L71.6418 126.975L83.9557 153.871Z" fill="#21629E"/>
<path opacity="0.3" d="M83.9557 153.871L189.172 105.699L176.858 78.8034L71.6418 126.975L83.9557 153.871Z" fill="white"/>
<path d="M110.417 131.312L176.907 100.871L172.5 91.2449L106.01 121.686L110.417 131.312Z" fill="#21629E"/>
<path opacity="0.8" d="M110.417 131.312L176.907 100.871L172.5 91.2449L106.01 121.686L110.417 131.312Z" fill="white"/>
<path d="M73.9908 132.117L179.207 83.9453L172.637 69.5945L67.4205 117.766L73.9908 132.117Z" fill="#21629E"/>
<path opacity="0.3" d="M73.9908 132.117L179.207 83.9453L172.637 69.5945L67.4205 117.766L73.9908 132.117Z" fill="black"/>
<g style="mix-blend-mode:multiply">
<path d="M75.7877 105.509L97.2934 160.114L189.164 118.053C190.405 117.482 191.37 116.442 191.846 115.162C192.323 113.882 192.274 112.465 191.71 111.222L169.625 63.0132L78.6995 98.8223C77.4294 99.3263 76.4103 100.312 75.8647 101.565C75.3192 102.818 75.2915 104.236 75.7877 105.509Z" fill="#21629E"/>
</g>
<path d="M197.388 88.2489L196.934 88.4087L197.686 90.5509L198.141 90.3911L197.388 88.2489Z" fill="#21629E"/>
<path opacity="0.1" d="M197.388 88.2489L196.934 88.4087L197.686 90.5509L198.141 90.3911L197.388 88.2489Z" fill="white"/>
<path d="M193.589 77.476L193.134 77.6357L196.098 86.0778L196.553 85.9181L193.589 77.476Z" fill="#21629E"/>
<path opacity="0.1" d="M193.589 77.476L193.134 77.6357L196.098 86.0778L196.553 85.9181L193.589 77.476Z" fill="white"/>
<path d="M82.1842 99.01L181.638 64.083C182.928 63.634 184.344 63.7141 185.575 64.3058C186.806 64.8976 187.753 65.9527 188.209 67.2407L208.1 123.881C208.549 125.171 208.47 126.587 207.879 127.819C207.288 129.051 206.234 129.999 204.947 130.456L105.493 165.383C104.202 165.831 102.786 165.751 101.555 165.159C100.323 164.568 99.3749 163.513 98.9173 162.226L79.0266 105.586C78.5774 104.295 78.6574 102.879 79.249 101.646C79.8407 100.414 80.8959 99.4665 82.1842 99.01Z" fill="#21629E"/>
<path opacity="0.1" d="M82.1842 99.01L181.638 64.083C182.928 63.634 184.344 63.7141 185.575 64.3058C186.806 64.8976 187.753 65.9527 188.209 67.2407L208.1 123.881C208.549 125.171 208.47 126.587 207.879 127.819C207.288 129.051 206.234 129.999 204.947 130.456L105.493 165.383C104.202 165.831 102.786 165.751 101.555 165.159C100.323 164.568 99.3749 163.513 98.9173 162.226L79.0266 105.586C78.5774 104.295 78.6574 102.879 79.249 101.646C79.8407 100.414 80.8959 99.4665 82.1842 99.01Z" fill="white"/>
<path d="M95.293 151.897L204.476 113.555L195.823 88.9154L86.6403 127.258L95.293 151.897Z" fill="#21629E"/>
<path opacity="0.3" d="M95.293 151.897L204.476 113.555L195.823 88.9154L86.6403 127.258L95.293 151.897Z" fill="white"/>
<path d="M161.419 88.3688L183.988 80.4429L182.754 76.9269L160.184 84.8528L161.419 88.3688Z" fill="#21629E"/>
<path opacity="0.8" d="M161.419 88.3688L183.988 80.4429L182.754 76.9269L160.184 84.8528L161.419 88.3688Z" fill="white"/>
<path d="M180.414 128.178L198.521 121.819L197.876 119.982L179.769 126.341L180.414 128.178Z" fill="#21629E"/>
<path opacity="0.8" d="M180.414 128.178L198.521 121.819L197.876 119.982L179.769 126.341L180.414 128.178Z" fill="white"/>
<path d="M176.42 133.531L199.754 125.337L199.109 123.499L175.775 131.694L176.42 133.531Z" fill="#21629E"/>
<path opacity="0.8" d="M176.42 133.531L199.754 125.337L199.109 123.499L175.775 131.694L176.42 133.531Z" fill="white"/>
<path d="M105.629 158.392L117.296 154.294L115.908 150.342L104.241 154.439L105.629 158.392Z" fill="#21629E"/>
<path opacity="0.8" d="M105.629 158.392L117.296 154.294L115.908 150.342L104.241 154.439L105.629 158.392Z" fill="white"/>
<path d="M178.288 116.485L191.911 111.703C192.63 111.448 193.218 110.919 193.548 110.232C193.879 109.545 193.925 108.755 193.676 108.034C193.42 107.316 192.891 106.728 192.204 106.398C191.517 106.067 190.728 106.021 190.007 106.27L176.379 111.057C175.661 111.313 175.072 111.842 174.742 112.529C174.411 113.216 174.366 114.005 174.614 114.726C174.871 115.444 175.401 116.032 176.089 116.362C176.777 116.691 177.567 116.736 178.288 116.485Z" fill="#21629E"/>
<path d="M154.95 124.681L168.578 119.894C169.291 119.637 169.875 119.111 170.204 118.429C170.533 117.746 170.581 116.962 170.338 116.245C170.081 115.527 169.552 114.94 168.865 114.611C168.179 114.281 167.389 114.236 166.669 114.485L153.046 119.272C152.328 119.528 151.739 120.056 151.409 120.743C151.078 121.43 151.033 122.22 151.281 122.941C151.542 123.654 152.072 124.237 152.759 124.563C153.445 124.888 154.232 124.931 154.95 124.681Z" fill="#21629E"/>
<path d="M131.627 132.876L145.255 128.089C145.966 127.831 146.548 127.304 146.875 126.622C147.202 125.939 147.249 125.156 147.005 124.44C146.749 123.723 146.22 123.135 145.533 122.806C144.846 122.476 144.057 122.431 143.337 122.68L129.699 127.448C128.981 127.705 128.394 128.234 128.065 128.921C127.735 129.608 127.69 130.397 127.939 131.117C128.195 131.839 128.728 132.429 129.419 132.759C130.111 133.089 130.905 133.131 131.627 132.876Z" fill="#21629E"/>
<path d="M108.279 141.072L121.908 136.285C122.621 136.029 123.206 135.503 123.536 134.821C123.866 134.138 123.915 133.353 123.672 132.635C123.415 131.918 122.886 131.331 122.199 131.001C121.512 130.672 120.723 130.627 120.003 130.876L106.375 135.663C105.657 135.918 105.068 136.447 104.738 137.134C104.408 137.821 104.362 138.611 104.61 139.331C104.871 140.045 105.402 140.628 106.088 140.953C106.774 141.279 107.562 141.322 108.279 141.072Z" fill="#21629E"/>
<g opacity="0.8">
<path opacity="0.8" d="M178.288 116.485L191.911 111.703C192.63 111.448 193.218 110.919 193.548 110.232C193.879 109.545 193.925 108.755 193.676 108.034C193.42 107.316 192.891 106.728 192.204 106.398C191.517 106.067 190.728 106.021 190.007 106.27L176.379 111.057C175.661 111.313 175.072 111.842 174.742 112.529C174.411 113.216 174.366 114.005 174.614 114.726C174.871 115.444 175.401 116.032 176.089 116.362C176.777 116.691 177.567 116.736 178.288 116.485Z" fill="white"/>
<path opacity="0.8" d="M154.95 124.681L168.578 119.894C169.291 119.637 169.875 119.111 170.204 118.429C170.533 117.746 170.581 116.962 170.338 116.245C170.081 115.527 169.552 114.94 168.865 114.611C168.179 114.281 167.389 114.236 166.669 114.485L153.046 119.272C152.328 119.528 151.739 120.056 151.409 120.743C151.078 121.43 151.033 122.22 151.281 122.941C151.542 123.654 152.072 124.237 152.759 124.563C153.445 124.888 154.232 124.931 154.95 124.681Z" fill="white"/>
<path opacity="0.8" d="M131.627 132.876L145.255 128.089C145.966 127.831 146.548 127.304 146.875 126.622C147.202 125.939 147.249 125.156 147.005 124.44C146.749 123.723 146.22 123.135 145.533 122.806C144.846 122.476 144.057 122.431 143.337 122.68L129.699 127.448C128.981 127.705 128.394 128.234 128.065 128.921C127.735 129.608 127.69 130.397 127.939 131.117C128.195 131.839 128.728 132.429 129.419 132.759C130.111 133.089 130.905 133.131 131.627 132.876Z" fill="white"/>
<path opacity="0.8" d="M108.279 141.072L121.908 136.285C122.621 136.029 123.206 135.503 123.536 134.821C123.866 134.138 123.915 133.353 123.672 132.635C123.415 131.918 122.886 131.331 122.199 131.001C121.512 130.672 120.723 130.627 120.003 130.876L106.375 135.663C105.657 135.918 105.068 136.447 104.738 137.134C104.408 137.821 104.362 138.611 104.61 139.331C104.871 140.045 105.402 140.628 106.088 140.953C106.774 141.279 107.562 141.322 108.279 141.072Z" fill="white"/>
</g>
<path d="M177.075 105.521L189.202 101.262C190.231 100.901 190.773 99.7725 190.412 98.7425L187.885 91.5468C187.523 90.5168 186.395 89.9751 185.365 90.3368L173.238 94.5953C172.208 94.957 171.667 96.0851 172.028 97.1151L174.555 104.311C174.917 105.341 176.045 105.882 177.075 105.521Z" fill="#21629E"/>
<path opacity="0.3" d="M177.075 105.521L189.202 101.262C190.231 100.901 190.773 99.7725 190.412 98.7425L187.885 91.5468C187.523 90.5168 186.395 89.9751 185.365 90.3368L173.238 94.5953C172.208 94.957 171.667 96.0851 172.028 97.1151L174.555 104.311C174.917 105.341 176.045 105.882 177.075 105.521Z" fill="black"/>
<path d="M105.595 112.971C103.845 112.972 102.159 112.315 100.871 111.132C99.5825 109.949 98.7854 108.325 98.6374 106.582C98.4893 104.838 99.0012 103.103 100.072 101.72C101.142 100.336 102.693 99.4045 104.417 99.11C106.142 98.8154 107.914 99.179 109.383 100.129C110.852 101.079 111.911 102.546 112.35 104.239C112.789 105.932 112.576 107.729 111.754 109.273C110.931 110.817 109.559 111.996 107.909 112.576C107.165 112.838 106.383 112.972 105.595 112.971ZM105.595 99.4731C104.854 99.4745 104.119 99.6 103.42 99.8443C101.783 100.42 100.441 101.622 99.6896 103.187C98.9383 104.752 98.8393 106.551 99.4143 108.189C99.8129 109.32 100.515 110.32 101.443 111.079C102.371 111.838 103.49 112.328 104.678 112.494C105.866 112.66 107.076 112.496 108.177 112.021C109.278 111.546 110.227 110.777 110.921 109.799C111.614 108.821 112.026 107.671 112.11 106.474C112.194 105.278 111.948 104.082 111.398 103.016C110.849 101.95 110.016 101.056 108.993 100.431C107.969 99.8064 106.794 99.475 105.595 99.4731Z" fill="#21629E"/>
<path opacity="0.8" d="M105.595 112.971C103.845 112.972 102.159 112.315 100.871 111.132C99.5825 109.949 98.7854 108.325 98.6374 106.582C98.4893 104.838 99.0012 103.103 100.072 101.72C101.142 100.336 102.693 99.4045 104.417 99.11C106.142 98.8154 107.914 99.179 109.383 100.129C110.852 101.079 111.911 102.546 112.35 104.239C112.789 105.932 112.576 107.729 111.754 109.273C110.931 110.817 109.559 111.996 107.909 112.576C107.165 112.838 106.383 112.972 105.595 112.971ZM105.595 99.4731C104.854 99.4745 104.119 99.6 103.42 99.8443C101.783 100.42 100.441 101.622 99.6896 103.187C98.9383 104.752 98.8393 106.551 99.4143 108.189C99.8129 109.32 100.515 110.32 101.443 111.079C102.371 111.838 103.49 112.328 104.678 112.494C105.866 112.66 107.076 112.496 108.177 112.021C109.278 111.546 110.227 110.777 110.921 109.799C111.614 108.821 112.026 107.671 112.11 106.474C112.194 105.278 111.948 104.082 111.398 103.016C110.849 101.95 110.016 101.056 108.993 100.431C107.969 99.8064 106.794 99.475 105.595 99.4731Z" fill="white"/>
<path d="M89.243 111.746C89.6874 113.004 90.4945 114.102 91.5625 114.901C92.6304 115.7 93.9112 116.165 95.2431 116.237C96.5751 116.309 97.8985 115.984 99.0462 115.305C100.194 114.625 101.114 113.62 101.691 112.418C102.269 111.215 102.476 109.868 102.289 108.548C102.101 107.227 101.526 105.992 100.637 104.998C99.7472 104.004 98.5832 103.295 97.2915 102.962C95.9998 102.629 94.6385 102.686 93.3793 103.127C92.5408 103.42 91.7685 103.875 91.1065 104.468C90.4446 105.06 89.906 105.777 89.5217 106.578C89.1375 107.379 88.915 108.247 88.8672 109.134C88.8194 110.021 88.9471 110.909 89.243 111.746Z" fill="#21629E"/>
<path opacity="0.8" d="M89.243 111.746C89.6874 113.004 90.4945 114.102 91.5625 114.901C92.6304 115.7 93.9112 116.165 95.2431 116.237C96.5751 116.309 97.8985 115.984 99.0462 115.305C100.194 114.625 101.114 113.62 101.691 112.418C102.269 111.215 102.476 109.868 102.289 108.548C102.101 107.227 101.526 105.992 100.637 104.998C99.7472 104.004 98.5832 103.295 97.2915 102.962C95.9998 102.629 94.6385 102.686 93.3793 103.127C92.5408 103.42 91.7685 103.875 91.1065 104.468C90.4446 105.06 89.906 105.777 89.5217 106.578C89.1375 107.379 88.915 108.247 88.8672 109.134C88.8194 110.021 88.9471 110.909 89.243 111.746Z" fill="white"/>
</svg>
