<svg width="47" height="47" viewBox="0 0 47 47" fill="none" xmlns="http://www.w3.org/2000/svg">
<rect width="47" height="47" rx="4" fill="white"/>
<path d="M10.0568 13.1739L14.631 8.59961L15.7448 9.71336L11.1705 14.2876L10.0568 13.1739Z" fill="#ACB8BF"/>
<path d="M18.0493 14.3251L22.6241 9.75195L23.7379 10.8657L19.1631 15.4388L18.0493 14.3251Z" fill="#ACB8BF"/>
<path d="M33.7369 36.8563L38.3123 32.2832L39.4261 33.3975L34.8507 37.9706L33.7369 36.8563Z" fill="#ACB8BF"/>
<path d="M32.5946 28.8134L37.17 24.2402L38.2837 25.3545L33.7078 29.9277L32.5946 28.8134Z" fill="#ACB8BF"/>
<path d="M37.725 40.1435L35.0813 16.4623L31.5375 12.9185L7.85627 10.2748C6.73127 10.1623 6.95627 12.9748 8.25002 13.5935L26.0813 21.9185L34.4063 39.7498C35.025 41.0435 37.8375 41.2685 37.725 40.1435Z" fill="#42ADE2"/>
<path d="M40.4814 10.557C41.7189 8.13824 39.8627 6.28199 37.4439 7.51949C34.3502 9.09449 29.7939 12.6382 25.1814 17.1945C17.9814 24.3945 13.3689 31.5382 14.8877 33.1132C16.4064 34.632 23.6064 30.0195 30.8064 22.8195C35.3627 18.2632 38.9064 13.6507 40.4814 10.557Z" fill="#DAE3EA"/>
<path d="M18.6001 39.8632L17.7001 31.5382L16.4626 30.3007L8.13758 29.4007C7.74383 29.3444 7.80008 30.3569 8.25008 30.5819L14.4938 33.5069L17.4188 39.7507C17.6438 40.2007 18.6563 40.2569 18.6001 39.8632Z" fill="#42ADE2"/>
<path d="M17.3625 31.9879C14.8313 34.5192 12.525 36.2629 12.1875 35.8692C11.85 35.5317 13.5938 33.1692 16.0688 30.6379C18.6 28.1067 20.9063 26.3629 21.3 26.7567C21.5813 27.0942 19.8375 29.4567 17.3625 31.9879Z" fill="#ACB8BF"/>
<path d="M39.6375 11.456C39.9187 10.4435 39.8062 9.4873 39.1875 8.8123C38.5687 8.19355 37.5562 8.0248 36.6 8.3623L34.6875 9.54355C35.6437 9.20605 37.05 9.7123 37.6687 10.331C38.3437 11.006 38.7937 12.356 38.4562 13.3123L39.6375 11.456Z" fill="#3E4347"/>
<path d="M36.186 11.4527L39.3664 8.26953L39.7247 8.62728L36.5438 11.811L36.186 11.4527Z" fill="#DAE3EA"/>
</svg>
