<svg width="51" height="50" viewBox="0 0 51 50" fill="none" xmlns="http://www.w3.org/2000/svg">
<path d="M28.3973 33.758H21.8028C21.0819 33.758 20.4976 34.3424 20.4976 35.0632V40.0628C20.4976 40.7836 21.0819 41.368 21.8028 41.368H28.3973C29.1181 41.368 29.7025 40.7836 29.7025 40.0628V35.0632C29.7025 34.3424 29.1181 33.758 28.3973 33.758Z" fill="#07485E"/>
<path d="M4.18311 11.0274H46.0172V35.0632H4.18311V11.0274Z" fill="#90DFFA"/>
<path d="M28.3973 33.758H25.1001V41.368H28.3973C29.1182 41.368 29.7025 40.7836 29.7025 40.0628V35.0632C29.7025 34.3424 29.1182 33.758 28.3973 33.758Z" fill="#07485E"/>
<path d="M25.1001 11.0274H46.0172V35.0632H25.1001V11.0274Z" fill="#90DFFA"/>
<path d="M33.2241 41.6292H16.9768C16.256 41.6292 15.6716 41.0448 15.6716 40.324C15.6716 39.6032 16.256 39.0188 16.9768 39.0188H33.2241C33.9449 39.0188 34.5293 39.6032 34.5293 40.324C34.5293 41.0448 33.9449 41.6292 33.2241 41.6292Z" fill="#09607D"/>
<path d="M46.0172 36.3684H4.18314C3.4623 36.3684 2.87793 35.784 2.87793 35.0632V11.0274C2.87793 10.3066 3.4623 9.72223 4.18314 9.72223H46.0172C46.738 9.72223 47.3224 10.3066 47.3224 11.0274V35.0632C47.3224 35.784 46.738 36.3684 46.0172 36.3684ZM5.48835 33.758H44.712V12.3326H5.48835V33.758Z" fill="#09607D"/>
<path d="M33.2237 39.0188H25.1001V41.6292H33.2237C33.9445 41.6292 34.5289 41.0448 34.5289 40.324C34.5289 39.6032 33.9445 39.0188 33.2237 39.0188Z" fill="#09607D"/>
<path d="M46.0171 9.72223H25.1001V12.3326H44.7119V33.758H25.1001V36.3684H46.0171C46.7379 36.3684 47.3223 35.784 47.3223 35.0632V11.0274C47.3223 10.3066 46.7379 9.72223 46.0171 9.72223Z" fill="#09607D"/>
</svg>
